[
    {
        "id": 0,
        "ownerId": 1,
        "smireName": "lida_rte",
        "test": "test",
        "name": "Lida",
        "consumptionPercentage": 0.57,
        "producingAssets": [
            {
                "id": 1,
                "priority": 2,
                "percentage": 100
            },
            {
                "id": 2,
                "priority": 1,
                "percentage": 100
            },
            {
                "id": 0,
                "priority": 0,
                "percentage": 100
            }
        ],
        "smartMeter": "0x00dEb90C67B8953F6Dc4a5DB3bb2Bd6aB3BC2B3E",
        "owner": "0x0051CcCBCFF51788dDa9614b12dcea0D57208C03",
        "operationalSince": 1526283576,
        "capacity": 12345,
        "maxGooContract": 60000000000,
        "maxGooContractByAsset": [
          {
            "producingAssets": [1],
            "maxGoo": 10000000000,
            "year": 2018
          },
          {
            "producingAssets": [0, 2],
            "maxGoo": 50000000000,
            "year": 2018
          }
        ],
        "maxCapacitySet": true,
        "lastSmartMeterReadWh": 123,
        "certificatesUsedForWh": 10,
        "active": true,
        "lastSmartMeterReadFileHash": "fileHash",
        "country": "France",
        "region": "Rhône Alpes",
        "zip": "38070",
        "city": "Saint-Quentin-Fallavier",
        "street": "avenue des Arrivaux",
        "houseNumber": "95",
        "gpsLatitude": "45,642293",
        "gpsLongitude": "5,123993",
        "avoidedCo2": 4567
    },
    {
        "id": 1,
        "ownerId": 1,
        "smireName": "lida_rte",
        "name": "My Green Company HQ",
        "consumptionPercentage": 1,
        "producingAssets": [
            {
                "id": 3,
                "priority": 2,
                "percentage": 33
            },
            {
                "id": 4,
                "priority": 1,
                "percentage": 100
            }
        ],
        "smartMeter": "0x00dEb90C67B8953F6Dc4a5DB3bb2Bd6aB3BC2B3E",
        "owner": "0x0051CcCBCFF51788dDa9614b12dcea0D57208C03",
        "operationalSince": 1526283576,
        "capacity": 12345,
        "maxGooContract": 60000000000,
        "maxGooContractByAsset": [
          {
            "producingAssets": [3],
            "maxGoo": 10000000000,
            "year": 2018
          },
          {
            "producingAssets": [4],
            "maxGoo": 50000000000,
            "year": 2018
          }
        ],
        "maxCapacitySet": true,
        "lastSmartMeterReadWh": 123,
        "certificatesUsedForWh": 10,
        "active": true,
        "lastSmartMeterReadFileHash": "fileHash",
        "country": "France",
        "region": "Occitanie / Pyrénées-Méditerranée",
        "zip": "31000",
        "city": "Toulouse",
        "street": "Place du Capitole",
        "houseNumber": "1",
        "gpsLatitude": "43,603783",
        "gpsLongitude": "1.443948",
        "avoidedCo2": 1234
    },
    {
        "id": 2,
        "ownerId": 1,
        "smireName": "weechain_conso1",
        "name": "La Boulangère Factory",
        "consumptionPercentage": 1,
        "producingAssets": [
            {
                "id": 3,
                "priority": 2,
                "percentage": 33
            },
            {
                "id": 5,
                "priority": 1,
                "percentage": 50
            }
        ],
        "smartMeter": "0x00dEb90C67B8953F6Dc4a5DB3bb2Bd6aB3BC2B3E",
        "owner": "0x0051CcCBCFF51788dDa9614b12dcea0D57208C03",
        "operationalSince": 1526283576,
        "capacity": 12345,
        "maxGooContract": 60000000000,
        "maxGooContractByAsset": [
          {
            "producingAssets": [3],
            "maxGoo": 10000000000,
            "year": 2018
          },
          {
            "producingAssets": [4],
            "maxGoo": 50000000000,
            "year": 2018
          }
        ],
        "maxCapacitySet": true,
        "lastSmartMeterReadWh": 123,
        "certificatesUsedForWh": 10,
        "active": true,
        "lastSmartMeterReadFileHash": "fileHash",
        "country": "France",
        "region": "Pays de la Loire",
        "zip": "85310",
        "city": "La Chaize-le-Vicomte",
        "street": "",
        "houseNumber": "",
        "gpsLatitude": "46,667424383206",
        "gpsLongitude": "-1,3159173439531742",
        "avoidedCo2": 1234
    },
    {
        "id": 3,
        "ownerId": 1,
        "smireName": "weechain_conso2",
        "name": "Barilla Factory",
        "consumptionPercentage": 1,
        "producingAssets": [
            {
                "id": 3,
                "priority": 2,
                "percentage": 34
            },
            {
                "id": 5,
                "priority": 1,
                "percentage": 50
            }
        ],
        "smartMeter": "0x00dEb90C67B8953F6Dc4a5DB3bb2Bd6aB3BC2B3E",
        "owner": "0x0051CcCBCFF51788dDa9614b12dcea0D57208C03",
        "operationalSince": 1526283576,
        "capacity": 12345,
        "maxGooContract": 60000000000,
        "maxGooContractByAsset": [
          {
            "producingAssets": [3],
            "maxGoo": 10000000000,
            "year": 2018
          },
          {
            "producingAssets": [5],
            "maxGoo": 50000000000,
            "year": 2018
          }
        ],
        "maxCapacitySet": true,
        "lastSmartMeterReadWh": 123,
        "certificatesUsedForWh": 10,
        "active": true,
        "lastSmartMeterReadFileHash": "fileHash",
        "country": "France",
        "region": "Centre-Val de Loire",
        "zip": "36130",
        "city": "Montierchaume",
        "street": "Zoning Industriel De La Malterie",
        "houseNumber": "860 ",
        "gpsLatitude": "46,849836",
        "gpsLongitude": "1,744955",
        "avoidedCo2": 1234
    }
]
