{
    "index": [
        "2018-10-09T00:00:00+02:00",
        "2018-10-10T00:00:00+02:00",
        "2018-10-11T00:00:00+02:00",
        "2018-10-12T00:00:00+02:00",
        "2018-10-13T00:00:00+02:00",
        "2018-10-14T00:00:00+02:00",
        "2018-10-15T00:00:00+02:00",
        "2018-10-16T00:00:00+02:00",
        "2018-10-17T00:00:00+02:00",
        "2018-10-18T00:00:00+02:00",
        "2018-10-19T00:00:00+02:00",
        "2018-10-20T00:00:00+02:00",
        "2018-10-21T00:00:00+02:00",
        "2018-10-22T00:00:00+02:00",
        "2018-10-23T00:00:00+02:00",
        "2018-10-24T00:00:00+02:00",
        "2018-10-25T00:00:00+02:00",
        "2018-10-26T00:00:00+02:00",
        "2018-10-27T00:00:00+02:00",
        "2018-10-28T00:00:00+02:00",
        "2018-10-29T00:00:00+01:00",
        "2018-10-30T00:00:00+01:00",
        "2018-10-31T00:00:00+01:00",
        "2018-11-01T00:00:00+01:00",
        "2018-11-02T00:00:00+01:00",
        "2018-11-03T00:00:00+01:00",
        "2018-11-04T00:00:00+01:00",
        "2018-11-05T00:00:00+01:00",
        "2018-11-06T00:00:00+01:00",
        "2018-11-07T00:00:00+01:00"
    ],
    "data": [
        [
            70316.49193145445,
            685860,
            361145.5
        ],
        [
            124036.07178962659,
            715680,
            376582.66666666674
        ],
        [
            54342.21948868202,
            715680,
            376007.1666666667
        ],
        [
            92437.16792838872,
            715680,
            375910.66666666674
        ],
        [
            98223.7039059183,
            715680,
            375663.1666666667
        ],
        [
            154757.9104898013,
            715680,
            375088.00000000006
        ],
        [
            128867.06927320754,
            715680,
            375672.3333333334
        ],
        [
            28951.83971483598,
            715680,
            376351.83333333343
        ],
        [
            287.143622185875,
            715680,
            376095.8333333333
        ],
        [
            2286.4764343667757,
            715680,
            374725.3333333334
        ],
        [
            187.10471392482495,
            715680,
            374670.99999999994
        ],
        [
            389.00318076855,
            715680,
            374483.6666666667
        ],
        [
            14885.327103601,
            715680,
            371736.8333333333
        ],
        [
            16973.677401059253,
            715680,
            370195.3333333333
        ],
        [
            27157.498666795826,
            715680,
            371564.5
        ],
        [
            75606.84474354006,
            715680,
            372595.6666666667
        ],
        [
            22472.40016355162,
            715680,
            374434.49999999994
        ],
        [
            2882.1937551349756,
            715680,
            373894.8333333334
        ],
        [
            32469.088739356772,
            715680,
            371420.1666666667
        ],
        [
            17747.9515731279,
            745500,
            355374.5
        ],
        [
            84067.82189882598,
            715680,
            368177.5
        ],
        [
            70027.0309448209,
            715680,
            370983.8333333333
        ],
        [
            115871.73730994023,
            715680,
            371150.3333333334
        ],
        [
            13738.297502380397,
            715680,
            372668.0000000001
        ],
        [
            22653.91437272435,
            715680,
            371914.1666666667
        ],
        [
            15584.327698580126,
            715680,
            370884.00000000006
        ],
        [
            28021.728185632426,
            715680,
            369494.6666666667
        ],
        [
            148552.6715902593,
            715680,
            372780.50000000006
        ],
        [
            35980.68551951557,
            715680,
            374174
        ],
        [
            51938.19913514398,
            715680,
            372720
        ]
    ],
    "columns": [
        "fontanelles",
        "eget",
        "lida_rte"
    ],
    "labels": [
        "Fontanelles Démo",
        "Eget Démo",
        "My Green Company HQ"
    ]
}