[
  {
    "id": 0,
    "name": "plt_mareges",
    "displayedName": "Marèges"
  },
  {
    "id": 1,
    "name": "fontanelles",
    "displayedName": "Fontanelles"
  },
  {
    "id": 2,
    "name": "eget",
    "displayedName": "Eget"
  },
  {
    "id": 3,
    "name": "plt_mareges",
    "displayedName": "Marèges (demo)",
    "duplicateOfAssetId": 0
  },
  {
    "id": 4,
    "name": "fontanelles",
    "displayedName": "Fontanelles (demo)",
    "duplicateOfAssetId": 1
  },
  {
    "id": 5,
    "name": "eget",
    "displayedName": "Eget (demo)",
    "duplicateOfAssetId": 2
  }
]
