{
    "index": [
        "2018-08-18T00:00:00+02:00",
        "2018-08-19T00:00:00+02:00",
        "2018-08-20T00:00:00+02:00",
        "2018-08-21T00:00:00+02:00",
        "2018-08-22T00:00:00+02:00",
        "2018-08-23T00:00:00+02:00",
        "2018-08-24T00:00:00+02:00",
        "2018-08-25T00:00:00+02:00",
        "2018-08-26T00:00:00+02:00",
        "2018-08-27T00:00:00+02:00",
        "2018-08-28T00:00:00+02:00",
        "2018-08-29T00:00:00+02:00",
        "2018-08-30T00:00:00+02:00",
        "2018-08-31T00:00:00+02:00",
        "2018-09-01T00:00:00+02:00",
        "2018-09-02T00:00:00+02:00",
        "2018-09-03T00:00:00+02:00",
        "2018-09-04T00:00:00+02:00",
        "2018-09-05T00:00:00+02:00",
        "2018-09-06T00:00:00+02:00",
        "2018-09-07T00:00:00+02:00",
        "2018-09-08T00:00:00+02:00",
        "2018-09-09T00:00:00+02:00",
        "2018-09-10T00:00:00+02:00",
        "2018-09-11T00:00:00+02:00",
        "2018-09-12T00:00:00+02:00",
        "2018-09-13T00:00:00+02:00",
        "2018-09-14T00:00:00+02:00",
        "2018-09-15T00:00:00+02:00",
        "2018-09-16T00:00:00+02:00"
    ],
    "data": [
        [
            2577429.1277777483,
            715166.4333333332,
            157457
        ],
        [
            2579309.8527777507,
            715688.2833333336,
            156061
        ],
        [
            2579250.147222195,
            715671.7166666666,
            173977
        ],
        [
            1508162.333333331,
            418474.0000000002,
            173963
        ],
        [
            3023459.480555546,
            838927.7166666667,
            171319
        ],
        [
            3206248.038888825,
            889646.5666666667,
            166263
        ],
        [
            2579250.147222196,
            715671.7166666669,
            164227
        ],
        [
            2579279.9999999725,
            715679.9999999998,
            161778
        ],
        [
            2579309.8527777516,
            715688.2833333334,
            153027
        ],
        [
            2579250.1472221995,
            715671.7166666667,
            173465
        ],
        [
            2579309.8527777474,
            715688.2833333334,
            167652
        ],
        [
            2579250.1472221958,
            715671.7166666664,
            152264
        ],
        [
            2579279.9999999735,
            715680.0000000001,
            171417
        ],
        [
            2579309.85277775,
            715688.2833333334,
            177684
        ],
        [
            2579250.1472221953,
            715671.7166666669,
            175705
        ],
        [
            2579309.8527777474,
            715688.2833333332,
            167794
        ],
        [
            2579220.2944444222,
            715663.4333333332,
            172370
        ],
        [
            2579339.7055555284,
            715696.5666666668,
            177944
        ],
        [
            2579250.1472221944,
            715671.7166666669,
            173691
        ],
        [
            2579250.147222189,
            715671.7166666669,
            153447
        ],
        [
            2579339.7055555293,
            715696.5666666665,
            351789
        ],
        [
            2579250.147222194,
            715671.7166666667,
            null
        ],
        [
            2579279.999999972,
            715679.9999999998,
            null
        ],
        [
            2579279.999999973,
            715680.0000000003,
            null
        ],
        [
            2579279.9999999725,
            715680,
            165537
        ],
        [
            2579279.999999971,
            715680,
            160505
        ],
        [
            2579279.99999997,
            715680.0000000003,
            171253
        ],
        [
            2579279.9999999795,
            715679.9999999999,
            173746
        ],
        [
            2579279.999999968,
            715679.9999999999,
            161681
        ],
        [
            2579309.8527777507,
            715688.2833333336,
            169246
        ]
    ],
    "columns": [
        "plt_mareges",
        "eget",
        "weechain_conso1"
    ],
    "labels": [
        "Marèges (demo)",
        "Eget (demo)",
        "La Boulangère Factory"
    ]
}